{
  "press": "active",
  "title": "Presse",
  "description": "Retrouvez toutes les informations presses et les ressources graphiques",
  "press-releases": [
    {
      "title": "ATILLA, histoire d'une association étudiante mythique de CY Tech fondée en 1998",
      "description": "Retrouvez l'histoire de la création d'ATILLA, la mythique association étudiante de promotion du logiciel libre et de la liberté sur internet de CY Tech, fondée en 1998. Ses fondateurs Jean-Charles Clément et Sébastien Delille nous disent tout...",
      "date": "02/04/2021",
      "link": "https://cytech.cyu.fr/lecole/actualites/bureau-atilla-nouveau-bureau-x-temoignage-dun-de-ses-fondateurs"

    },
    {
      "title": "Conférence \"Internet et Libertés\" : Adrienne Charmet (La Quadrature du Net) l'invitée d'ATILLA le 15 février 2016",
      "description": "Neutralité du Net, vie privée, liberté d’expression, Adrienne Charmet abordera des questions au coeur de l’actualité et présentera les missions et actions conduites par la Quadrature du Net.",
      "date": "26/01/2016",
      "link": "assets/pdf/press-release/LQDN-15-02-2016.pdf"
    },
    {
      "title": "Conférence \"XWiki, ou comment monter son business Open Source ?\" : Ludovic Dubost (XWiki SAS) l'invité d'ATILLA le 27 mars 2016",
      "description" : "L'économie des communs et l'Open Source en particulier, sont une façon alternative d'adresser un marché mondial en pleine mutation. Dans cette conférence qui retracera comment la société XWiki s'est développée en 10 ans de 0 à 2 millions d'Euros de revenus, de façon éthique et responsable et sans investisseurs externes, Ludovic Dubost expliquera pourquoi développer un business \"Open Source\" est une chose importante et comment on peut le faire.",
      "date": "27/03/2017",
      "link": "assets/pdf/press-release/XWiki-27-03-2017.pdf"
    }
  ]
}
