{
  "services": [
    {
      "title":"Paste",
      "link":"paste.atilla.org"
    },
    {
      "title":"Documentation",
      "link":"wiki.atilla.org"
    },
    {
      "title":"Pad",
      "link":"pad.atilla.org"
    },
    {
      "title":"Learn",
      "link":"learn.atilla.org"
    },
    {
      "title":"Blog",
      "link":"blog.atilla.org"
    },
    {
      "title":"CY Tech",
      "link":"cytech.cyu.fr"
    },
    {
      "title":"EISTIENS",
      "link":"eistiens.net"
    },
    {
      "title":"Peertube",
      "link":"peertube.atilla.org"
    }
  ]
}
